<?xml version="1.0" encoding="UTF-8"?>
<!DOCTYPE svg PUBLIC "-//W3C//DTD SVG 1.1//EN" "http://www.w3.org/Graphics/SVG/1.1/DTD/svg11.dtd">
<!-- Creator: CorelDRAW X6 -->
<svg xmlns="http://www.w3.org/2000/svg" xml:space="preserve" width="256px" height="256px" version="1.1" style="shape-rendering:geometricPrecision; text-rendering:geometricPrecision; image-rendering:optimizeQuality; fill-rule:evenodd; clip-rule:evenodd"
viewBox="0 0 256 256"
 xmlns:xlink="http://www.w3.org/1999/xlink">
 <defs>
  <style type="text/css">
   <![CDATA[
    .fil0 {fill:#39331B}
    .fil1 {fill:#39331B;fill-rule:nonzero}
   ]]>
  </style>
 </defs>
 <g id="Layer_x0020_1">
  <metadata id="CorelCorpID_0Corel-Layer"/>
  <g id="_991534880">
   <path class="fil0" d="M113 120l0 0zm0 0c-1,0 -3,-1 -4,-1 -4,-2 -7,-4 -10,-6 -1,-1 -1,-1 -2,-1 -3,-3 -9,-11 -10,-15 4,1 15,4 19,4 0,1 3,8 3,10l4 9zm-8 -26c-1,0 -4,0 -5,0 -2,-1 -13,-3 -15,-4 0,0 0,0 0,-2l-1 -5c0,-9 2,-12 2,-13l19 4 -1 5c0,3 0,2 0,5 0,2 0,4 0,5 1,2 1,4 1,5zm30 -26l-4 1c-5,0 -13,0 -18,-1 -1,0 -1,0 -2,0 1,-2 1,-5 2,-7 1,-5 5,-17 10,-17 4,0 7,7 8,10 2,5 4,14 4,14zm-30 -1c-1,0 -3,0 -4,0 -1,0 -3,-1 -4,-1l-8 -2c1,-3 7,-9 9,-11 1,-1 2,-2 3,-2 3,-2 8,-5 11,-5 -3,5 -5,10 -6,15 0,2 -1,5 -1,6zm-27 13c0,9 1,14 5,23 3,5 4,5 7,10 1,1 2,2 4,4 4,3 7,5 13,7 2,1 5,2 8,3 1,0 4,0 5,0 2,0 3,-1 3,-2 0,-3 -3,-5 -5,-9 -2,-5 -4,-10 -5,-15 -2,-5 -3,-13 -3,-19 0,-2 0,-5 0,-8 4,0 6,1 10,1l6 0c4,0 6,-1 9,-1 1,3 0,6 2,7 1,1 5,2 5,-3 0,-7 -2,-19 -5,-25l-3 -7c1,0 4,1 5,1 2,1 3,2 5,3 3,2 6,6 8,6 2,0 4,-3 2,-5 -3,-4 -11,-9 -16,-11 -2,0 -4,-1 -7,-1 -10,-2 -19,-1 -29,4l-11 8 -3 4c-5,6 -10,16 -10,25z"/>
   <path class="fil0" d="M169 70c3,0 4,3 6,6 1,4 2,5 1,9l-3 14c-1,4 -3,8 2,8 3,0 3,-2 3,-4 1,-2 1,-4 2,-6l2 -13c2,1 3,3 4,5 1,6 1,10 0,16 -2,5 -8,24 -11,31 0,1 -1,2 -1,3l-30 0c-1,0 -1,0 -1,-2 -1,-6 -1,-8 -5,-13 -6,-6 -8,-15 -11,-22 -2,-4 -4,-8 -3,-12 1,-3 4,-1 5,-1 6,6 5,17 12,17 3,0 4,0 6,-2 4,-4 7,-18 7,-24 1,-2 1,-5 1,-7 0,-5 2,-9 7,-9 0,0 0,2 0,3 1,2 1,3 1,4 1,12 0,14 -3,25 -1,2 -2,6 -1,7 1,1 2,1 3,1 3,0 3,-2 3,-4 2,-6 4,-16 4,-21 0,-3 0,-6 0,-9zm24 25l0 4c0,4 -1,8 -3,13l-8 24c-2,5 -3,9 -8,9l-30 0c-3,0 -5,-2 -6,-4 -1,-2 -1,-2 -1,-4 -1,-7 -4,-7 -7,-13 -3,-5 -2,-3 -5,-9 -1,-2 -1,-3 -1,-4l-3 -7c-1,-4 -3,-8 -3,-12 0,-3 1,-7 4,-9 1,0 3,-1 4,-1 5,0 8,3 10,7 4,5 4,11 6,11 2,0 4,-8 5,-11 0,-2 1,-4 1,-6 0,-1 0,-2 0,-3 1,-5 0,-12 3,-17 4,-5 11,-7 16,-4 1,1 1,3 1,5 5,0 8,1 10,5 1,2 4,7 4,10 2,-1 5,0 7,2 2,5 4,9 4,14z"/>
   <path class="fil0" d="M64 74c0,3 2,4 4,3 4,-1 2,-5 5,-15 5,-11 12,-19 22,-25 21,-13 48,-9 65,7 0,0 0,1 1,1 0,0 0,1 1,1 3,3 5,8 8,5 1,0 1,-1 1,-2 0,-2 0,-4 0,-6 1,-3 1,-7 1,-11 0,-3 -4,-4 -6,-1 0,0 0,9 0,10 -2,-1 -3,-2 -4,-3l-2 -2c-5,-4 -6,-5 -12,-7 -15,-8 -33,-8 -48,-2 -6,3 -10,6 -15,9l-8 9c-3,3 -5,7 -7,11l-3 7c-1,2 -3,8 -3,11z"/>
   <path class="fil0" d="M62 110c0,4 5,5 6,1 1,-1 1,-3 1,-4 2,3 3,10 17,22 1,0 1,0 2,1 9,7 21,11 37,11 5,0 4,-4 2,-5 -1,-1 -7,-1 -11,-1 -2,0 -3,-1 -4,-1l-6 -2c-6,-2 -15,-6 -19,-11 -1,-1 -3,-2 -4,-4 -3,-4 -5,-5 -7,-10 -4,-7 -5,-14 -6,-15 -1,-2 -4,-2 -5,0 0,1 0,2 -1,4 0,2 -2,12 -2,14z"/>
   <polygon class="fil1" points="64,161 54,174 45,161 44,161 44,184 47,184 47,168 54,177 55,177 62,168 62,184 65,184 65,161 "/>
   <path id="1" class="fil1" d="M70 177c0,4 3,7 7,7 4,0 7,-3 7,-7l0 -10 -3 0 0 10c0,3 -2,5 -4,5 -3,0 -4,-2 -4,-5l0 -10 -3 0 0 10z"/>
   <polygon id="2" class="fil1" points="89,184 92,184 92,159 89,159 "/>
   <path id="3" class="fil1" d="M106 181c-1,1 -1,1 -2,1 -2,0 -4,-1 -4,-3l0 -9 6 0 0 -3 -6 0 0 -4 -2 0 0 4 -3 0 0 3 3 0 0 9c0,3 2,5 5,5 1,0 2,0 3,0l0 -3z"/>
   <path id="4" class="fil1" d="M110 184l2 0 0 -17 -2 0 0 17zm-1 -23c0,1 1,2 2,2 1,0 2,-1 2,-2 0,-1 -1,-2 -2,-2 -1,0 -2,1 -2,2z"/>
   <path id="5" class="fil1" d="M144 177c0,-3 -2,-5 -5,-6 2,-1 2,-2 2,-4 0,-1 0,-3 -1,-4 -1,-1 -3,-1 -5,-1l-7 0 0 22 9 0c4,0 7,-3 7,-7zm-9 -13c2,0 4,1 4,3 0,2 -2,4 -4,4l-5 0 0 -7 5 0zm6 13c0,3 -2,4 -5,4l-6 0 0 -8 6 0c3,0 5,2 5,4z"/>
   <path id="6" class="fil1" d="M157 167c-1,0 -1,0 -2,0 -2,0 -3,1 -5,3l0 -3 -2 0 0 17 3 0 0 -10c0,-3 2,-4 5,-4l1 0 0 -3z"/>
   <path id="7" class="fil1" d="M172 174c0,-5 -3,-7 -6,-7 -3,0 -6,1 -7,4l2 1c1,-2 2,-3 4,-3 3,0 4,2 4,4l0 2 -5 0c-3,0 -6,2 -6,4 0,3 3,5 6,5 2,0 4,-1 5,-3l0 3 3 0 0 -10zm-3 3c0,3 -2,5 -5,5 -2,0 -3,-1 -3,-3 0,-1 1,-2 3,-2l5 0 0 0z"/>
   <path id="8" class="fil1" d="M191 173c0,-3 -3,-6 -6,-6 -2,0 -4,1 -5,2l0 -2 -3 0 0 17 3 0 0 -10c0,-3 2,-5 4,-5 3,0 4,2 4,5l0 10 3 0 0 -11z"/>
   <path id="9" class="fil1" d="M209 159l0 11c-1,-2 -4,-3 -6,-3 -5,0 -8,4 -8,8 0,5 3,9 8,9 3,0 5,-1 6,-3l0 3 3 0 0 -25 -3 0zm0 16c0,5 -3,7 -6,7 -3,0 -5,-3 -5,-7 0,-3 2,-6 5,-6 3,0 6,2 6,6z"/>
   <path id="10" class="fil1" d="M67 209c2,3 5,5 8,5 4,0 7,-2 7,-6 0,-3 -1,-4 -5,-6l-2 -1c-2,-1 -3,-2 -3,-2 -1,-1 -1,-1 -1,-2 0,-2 2,-3 4,-3 2,0 4,1 5,3l2 -2c-1,-2 -4,-4 -7,-4 -4,0 -7,3 -7,6 0,3 2,5 5,6l3 1c2,1 4,2 4,4 0,2 -2,4 -5,4 -2,0 -4,-2 -6,-4l-2 1z"/>
   <path id="11" class="fil1" d="M87 207c0,4 3,7 7,7 3,0 6,-3 6,-7l0 -9 -2 0 0 9c0,3 -2,5 -4,5 -3,0 -5,-2 -5,-5l0 -9 -2 0 0 9z"/>
   <path id="12" class="fil1" d="M122 206c0,-5 -3,-9 -8,-9 -2,0 -5,1 -6,3l0 -2 -2 0 0 22 2 0 0 -9c2,2 4,3 6,3 5,0 8,-4 8,-8zm-2 0c0,3 -3,6 -6,6 -3,0 -6,-2 -6,-6 0,-4 3,-6 6,-6 3,0 6,2 6,6z"/>
   <path id="13" class="fil1" d="M143 206c0,-5 -3,-9 -8,-9 -2,0 -5,1 -6,3l0 -2 -2 0 0 22 2 0 0 -9c2,2 4,3 6,3 5,0 8,-4 8,-8zm-2 0c0,3 -3,6 -6,6 -3,0 -6,-2 -6,-6 0,-4 3,-6 6,-6 3,0 6,2 6,6z"/>
   <path id="14" class="fil1" d="M147 206c0,4 4,8 8,8 5,0 9,-4 9,-8 0,-5 -4,-9 -9,-9 -4,0 -8,4 -8,9zm14 0c0,3 -3,6 -6,6 -3,0 -6,-3 -6,-6 0,-4 3,-6 6,-6 4,0 6,2 6,6z"/>
   <path id="15" class="fil1" d="M177 198c-1,-1 -1,-1 -1,-1 -2,0 -4,1 -5,3l0 -2 -3 0 0 16 3 0 0 -9c0,-3 2,-5 5,-5l1 0 0 -2z"/>
   <path id="16" class="fil1" d="M189 212c-1,0 -1,0 -2,0 -2,0 -3,-1 -3,-3l0 -9 5 0 0 -2 -5 0 0 -5 -3 0 0 5 -3 0 0 2 3 0 0 9c0,3 2,5 5,5 1,0 2,0 3,0l0 -2z"/>
  </g>
 </g>
</svg>
